{
    "faces": [41,55,15,3,49,0,1,2,3,0,1,2,3,41,40,1,10,50,4,5,6,7,4,5,6,7,41,50,10,11,51,7,6,8,9,7,6,8,9,41,51,11,12,52,9,8,10,11,9,8,10,11,41,52,12,13,53,11,10,12,13,11,10,12,13,41,53,13,14,54,13,12,14,15,13,12,14,15,41,54,14,15,55,15,14,1,0,15,14,1,0,41,46,36,39,47,16,17,18,19,16,17,18,19,41,36,35,38,39,17,20,21,18,17,20,21,18,41,35,34,37,38,20,22,23,21,20,22,23,21,41,45,33,36,46,24,25,17,16,24,25,17,16,41,33,32,35,36,25,26,20,17,25,26,20,17,41,32,31,34,35,26,27,22,20,26,27,22,20,41,44,30,33,45,28,29,25,24,28,29,25,24,41,30,29,32,33,29,30,26,25,29,30,26,25,41,29,28,31,32,30,31,27,26,30,31,27,26,41,43,27,30,44,32,33,29,28,32,33,29,28,41,27,26,29,30,33,34,30,29,33,34,30,29,41,26,25,28,29,34,35,31,30,34,35,31,30,41,42,24,27,43,36,37,33,32,36,37,33,32,41,24,23,26,27,37,38,34,33,37,38,34,33,41,23,22,25,26,38,39,35,34,38,39,35,34,41,48,16,24,42,40,41,37,36,40,41,37,36,41,16,17,23,24,41,42,38,37,41,42,38,37,41,17,18,22,23,42,43,39,38,42,43,39,38,41,47,39,21,41,19,18,44,45,19,18,44,45,41,39,38,20,21,18,21,46,44,18,21,46,44,41,38,37,19,20,21,23,47,46,21,23,47,46,41,4,47,41,2,48,19,45,49,48,19,45,49,41,0,48,42,9,50,40,36,51,50,40,36,51,41,9,42,43,8,51,36,32,52,51,36,32,52,41,8,43,44,7,52,32,28,53,52,32,28,53,41,7,44,45,6,53,28,24,54,53,28,24,54,41,6,45,46,5,54,24,16,55,54,24,16,55,41,5,46,47,4,55,16,19,48,55,16,19,48,41,34,54,55,37,22,15,0,23,22,15,0,23,41,31,53,54,34,27,13,15,22,27,13,15,22,41,28,52,53,31,31,11,13,27,31,11,13,27,41,25,51,52,28,35,9,11,31,35,9,11,31,41,22,50,51,25,39,7,9,35,39,7,9,35,41,18,40,50,22,43,4,7,39,43,4,7,39,41,37,55,49,19,23,0,3,47,23,0,3,47],
    "vertices": [-0.958777,0,5.31903,0.958777,0,5.31903,-0.382956,0,-0.012182,0.382956,0,-0.012182,-0.989084,0.173212,0.885822,-1.40671,0.18038,1.5543,-1.66487,0.198333,2.34568,-1.76585,0.193786,3.13996,-1.70872,0.065465,3.928,-1.43122,0.003817,4.71603,1.43122,0.003817,4.71603,1.70872,0.065465,3.928,1.76585,0.193786,3.13996,1.76067,0.198333,2.36193,1.55868,0.18038,1.57944,1.07232,0.173212,0.904025,-0.418326,0,5.60691,0,0,5.70837,0.418326,0,5.60691,0.204492,0.332988,-0.012182,0,0,-0.012182,-0.204492,0.332988,-0.012182,0.715612,0.124109,4.71603,0,0,4.71603,-0.715612,0.124109,4.71603,0.912167,0.190043,3.928,0,0,3.928,-0.912167,0.190043,3.928,0.882928,0.286793,3.13996,0,0,3.13996,-0.882928,0.286793,3.13996,1.02236,0.332988,2.3625,-0,0,2.35193,-0.916142,0.332988,2.34552,0.903227,0.332988,1.57652,0,0,1.56389,-0.778883,0.332988,1.55613,0.399274,0.332988,0.775854,0,0,0.775854,-0.399274,0.332988,0.775855,0.688552,0,5.46297,-0.293724,0.166494,-0.012182,-1.07342,0.062055,4.71603,-1.31044,0.229464,3.928,-1.32439,0.356316,3.13996,-1.32244,0.340616,2.34435,-1.10488,0.320604,1.55474,-0.692776,0.277541,0.772174,-0.688551,0,5.46297,0.293724,0.166494,-0.012182,1.07342,0.062055,4.71603,1.31044,0.229464,3.928,1.32439,0.356316,3.13996,1.44284,0.340616,2.36422,1.25038,0.320604,1.57874,0.744357,0.277541,0.781557],
    "normals": [0.385571,0.8717,-0.302408,0.436323,0.832606,-0.341075,0.571215,0.658254,-0.490249,0.510208,0.780358,-0.361492,0.131901,0.978423,0.158818,0.119785,0.984985,0.124119,0.225043,0.954985,0.193182,0.129551,0.978118,0.162603,0.320658,0.927427,0.19245,0.146031,0.973266,0.17716,0.365947,0.925962,0.092868,0.121464,0.989013,0.084078,0.389966,0.919614,-0.046754,0.205023,0.97821,-0.032411,0.403485,0.89581,-0.186254,0.241951,0.959197,-0.146123,-0.240852,0.961028,-0.135441,0.159368,0.987213,0.00116,0.181158,0.982879,-0.033235,-0.412732,0.863979,-0.288369,0.020051,0.995941,0.087588,0.011658,0.989715,0.14243,-0.132572,0.99115,-0.003021,-0.189398,0.981628,-0.022156,-0.189764,0.980621,-0.048341,0.184362,0.982757,0.012848,0.014344,0.999664,0.020631,-0.167241,0.9859,0.003204,-0.129856,0.988708,0.074679,0.203345,0.977203,0.060762,0.004212,0.999207,0.038942,-0.203375,0.977691,0.052339,-0.146031,0.973266,0.17716,0.127812,0.986663,0.100558,0,0.999115,0.04178,-0.127812,0.986663,0.100558,-0.129551,0.978118,0.162603,0.029633,0.994659,0.098605,0,0.99942,0.033601,-0.029633,0.994659,0.098605,-0.131901,0.978423,0.158818,0.041108,0.995849,0.080905,0,0.998779,0.049257,-0.041108,0.995849,0.080905,0.224372,0.971038,-0.081729,-0.543657,0.762108,-0.351543,0,0.990814,0.135044,-0.24427,0.966399,-0.079806,-0.458083,0.830897,-0.315775,-0.596332,0.653127,-0.466659,-0.119785,0.984985,0.124119,-0.225043,0.954985,0.193182,-0.320658,0.927427,0.19245,-0.361492,0.929624,0.071322,-0.378216,0.922391,-0.078219,-0.40199,0.89639,-0.18659],
    "metadata": {
        "faces": 42,
        "generator": "io_three",
        "version": 3,
        "bones": 4,
        "type": "Geometry",
        "vertices": 56,
        "normals": 56,
        "uvs": 1
    },
    "skinIndices": [3,2,3,2,0,1,0,0,0,1,0,1,0,1,1,2,2,1,3,2,3,2,2,1,1,2,0,1,0,3,0,1,3,2,3,1,3,1,0,2,0,1,0,2,3,2,3,2,3,2,2,1,2,1,2,1,1,2,1,2,1,2,0,1,0,1,0,1,0,1,0,1,0,1,0,1,0,1,0,1,3,1,0,2,3,2,2,1,1,2,0,1,0,1,0,1,3,1,0,1,3,2,2,1,1,0,0,1,0,1,0,1],
    "uvs": [[0.670497,0.141366,0.62568,0.127998,0.78702,0.02484,0.807832,0.054087,0.052356,0.766947,0.035205,0.713086,0.049637,0.571923,0.098697,0.617955,0.112428,0.430327,0.172893,0.481732,0.208434,0.317587,0.272278,0.375657,0.343314,0.242466,0.397137,0.295033,0.489935,0.177067,0.532856,0.219832,0.788163,0.480523,0.751958,0.439162,0.84423,0.313651,0.869734,0.344493,0.663719,0.347072,0.772814,0.240166,0.573474,0.256933,0.700778,0.167418,0.710251,0.614625,0.663452,0.56249,0.556844,0.451757,0.448308,0.342891,0.627104,0.737801,0.571117,0.678376,0.451406,0.555056,0.330553,0.432847,0.519032,0.834999,0.467578,0.782195,0.346514,0.657829,0.22464,0.534253,0.381329,0.906404,0.336113,0.856629,0.241663,0.760564,0.147542,0.664176,0.231426,0.949701,0.177708,0.931498,0.110229,0.889348,0.069461,0.821024,0.932755,0.185337,0.959533,0.208494,0.881135,0.133773,0.830504,0.081248,0.883943,0.392533,0.988405,0.22979,0.284926,0.967945,0.426352,0.95639,0.569193,0.896497,0.683859,0.80281,0.761702,0.669497,0.830048,0.524267]],
    "bones": [{
        "pos": [0,0.042462,0.0141],
        "parent": -1,
        "name": "Bone",
        "rotq": [0,0,0,1]
    },{
        "pos": [0,0.280148,2.76428],
        "parent": 0,
        "name": "Bone.001",
        "rotq": [0,0,0,1]
    },{
        "pos": [0,-0.147507,1.28425],
        "parent": 1,
        "name": "Bone.002",
        "rotq": [0,0,0,1]
    },{
        "pos": [0.007961,-0.079125,0.889479],
        "parent": 2,
        "name": "Bone.003",
        "rotq": [0,0,0,1]
    }],
    "name": "PlaneGeometry",
    "skinWeights": [0.952128,0.081001,1,0.036514,1,0,1,0,0.697593,0,0.613669,0,0.4,0.32918,1,0.2,1,0.212424,0.571111,0.2,0.637261,0.2,1,0.229107,1,0.127379,0.49051,0.4,0.428951,0.00768,0.873702,0,0.982412,0.091005,0.96352,0.017889,1,0.030946,1,0,1,0,1,0,0.443364,0.2,0.639651,0.2,0.553655,0.2,1,0.400055,1,0.189343,1,0.246112,0.954653,0.184315,1,0.2,0.97183,0.2,0.458594,0.250199,0.4,0.4,0.758688,0.4,0.508344,0,0.695808,0,0.591803,0,1,0,0.807798,0,1,0,1,0.046762,1,0,0.593936,0.2,1,0.303491,1,0.2,0.744017,0.4,0.547416,0,1,0,0.99887,0,1,0,0.652427,0.2,1,0.247368,1,0.042697,0.57979,0.263521,0.455065,0,1,0.006212],
    "influencesPerVertex": 2
}